{
	"landingPageTemplate": "atom-lp.html",
	"lang": "zh",
	"pageClassName": "atom",
	"pageTitle": "ATOM系列",
	
	"s1Heading": "ATOM系列",
	"s1Subheading": "多用途功能保暖服",
	
	"s2Text": "Atom系列拥有各级保暖度，能应对高山旅程中各种海拔高度、旅途长度和天气状况。防风雨外层面料可阻挡雨水而挡风；专利Coreloft™保暖材料既保暖又能防止汗湿积聚。",
	
	"s3Heading": "CORELOFT",
	"s3Text": "这款硅胶涂层合成纤维保暖服拥有绝佳蓬松度，保暖高效，潮湿时仍可有效保暖。轻薄且透气",

	"s4Heading": "细节",
	"s4Text1": "No Slip Zip™防滑拉链能防止领子拉链自然打开。",
	"s4Text2": "采用垂直抽绳设计，打造便携性能。",
	"s4Text3": "透气表层面料可有效控制身体温度。",
	
	"s5Heading": "ATOM系列",
	"s5Text": "Atom保暖服可根据保暖度和用途来分类。预期的气候环境和个人喜好是选购时需要考虑的额外因素。",
	"s5Product1": {
		"text": "ATOM SL",
		"description": "SL系列极致便携轻薄，能轻松与其他衣物搭配，适合凉爽的夏季早晨或高强度活动时穿着。",
		"cta": {
			"text": "选购ATOM SL",
			"url": "http://www.arcteryx.com/ProductFind.aspx?modelno=17305,17309&intro=AtomFamily&intcmp=Atom_L_ShopFind_AtomSL"
		},
		"img": "../../assets/images/atom/atom_sl.png"
	},
	"s5Product2": {
		"text": "ATOM LT",
		"description": "LT系列具有最广泛适用的保暖度、重量和用途，通常用作外衣，具有极佳的防风挡雨性能。",
		"cta": {
			"text": "选购ATOM LT",
			"url": "http://www.arcteryx.com/ProductFind.aspx?modelno=14644,14660,14645,14661,14646,14662,14647&intro=AtomFamily&intcmp=Atom_L_ShopFind_AtomLT"
		},
		"img": "../../assets/images/atom/atom_lt.png"
	},
	"s5Product3": {
		"text": "ATOM AR",
		"description": "较凉天气时的外衣或冬天的中间层。AR系列能在低速活动或休息时提供高效的保暖性能。",
		"cta": {
			"text": "选购ATOM AR",
			"url": "http://www.arcteryx.com/ProductFind.aspx?modelno=14648,14664,14649&intro=AtomFamily&intcmp=Atom_L_ShopFind_AtomAR"
		},
		"img": "../../assets/images/atom/atom_ar.png"
	}
}