{
	"lang": "zh",
	"bannerClassName": "twentyfour-womens",
	"bannerHeading": "精致且功能强大的休闲女装",
	"bannerSubheading": "",
	"bannerParagraph": "功能性休闲设计。 适合城市和高山环境穿着。",
	"bannerShopLinks": [
		{
			"text": "Yerba夹克",
			"url": "http://www.arcteryx.com/Product.aspx?gender=womens&collection=24&model=Yerba-Coat-W&intcmp=24_C_Shop_18047"
		}, {
			"text": "Lunara 17肩包",
			"url": "http://www.arcteryx.com/Product.aspx?gender=womens&collection=24&model=Lunara-17-Shoulder-Bag&intcmp=24_C_Shop_13982"
		}, {
			"text": "Cable绒球帽",
			"url": "http://www.arcteryx.com/Product.aspx?category=Accessories&subcat=Toques_and_Beanies&model=Cable-Pom-Pom-Hat&intcmp=24_C_Shop_18880"
		}
	],
	"bannerCallout": {
		"text": "PATERA派克大衣 女装",
		"url": "http://www.arcteryx.com/Product.aspx?gender=womens&collection=24&model=Patera-Parka-W&intcmp=24_C_Shop_12645"
	}
}