{
	"lang": "de",
	"bannerClassName": "twentyfour-womens",
	"bannerHeading": "FUNKTIONELLE LIFESTYLE",
	"bannerSubheading": "KOLLEKTION FÜR FRAUEN",
	"bannerParagraph": "Lässige Designs mit technischen Details. Ideal für Stadt und Berg.",
	"bannerShopLinks": [
		{
			"text": "Yerba Coat",
			"url": "http://www.arcteryx.com/Product.aspx?gender=womens&collection=24&model=Yerba-Coat-W&intcmp=24_C_Shop_18047"
		}, {
			"text": "Lunara 17 Shoulder Bag",
			"url": "http://www.arcteryx.com/Product.aspx?gender=womens&collection=24&model=Lunara-17-Shoulder-Bag&intcmp=24_C_Shop_13982"
		}, {
			"text": "Cable Pom Pom Hat",
			"url": "http://www.arcteryx.com/Product.aspx?category=Accessories&subcat=Toques_and_Beanies&model=Cable-Pom-Pom-Hat&intcmp=24_C_Shop_18880"
		}
	],
	"bannerCallout": {
		"text": "Patera Parka",
		"url": "http://www.arcteryx.com/Product.aspx?gender=womens&collection=24&model=Patera-Parka-W&intcmp=24_C_Shop_12645"
	}
}