{
	"lang": "de",
	"bannerClassName": "voltair-2",
	"bannerHeading": "VOLTAIR LAWINENAIRBAG",
	"bannerParagraph": "Das Herzstück des neuen Voltair Airbag System ist ein leistungsstarker Lithium Polymer Akku (wird extra angeboten), der mehrere Auslösungen mit einem Ladevorgang möglich macht.",
	"bannerParagraphLink": {
		"text": "MEHR INFO",
		"url": "http://www.arcteryx.com/LearnMore.aspx?article=Voltair&intcmp=Voltair_C_Learn_Voltair"
	},
	"bannerCTA": {
		"text": "MEHR INFO",
		"url": "http://www.arcteryx.com/LearnMore.aspx?article=Voltair&intcmp=Voltair_C_Learn_Voltair"
	},
	"voltairSteps": {
		"voltairStep1": {
			"stepText": "<span>1</span> SCHRITT",
			"text": "Wählen Sie Ihre Rucksackgröße: 20L oder 30L"
		},
		"voltairStep2": {
			"stepText": "<span>2</span> SCHRITT",
			"text": "Kaufen Sie einen Lithium Polymer Akku"
		},
		"voltairStep3": {
			"stepText": "<span>3</span> SCHRITT",
			"text": "Kaufen Sie ein Ladegerät"
		}
	}
}