{
	"lang": "de",
	"bannerClassName": "whiteline-womens",
	"bannerHeading": "Whiteline",
	"bannerSubheading": "SKI & SNOWBOARD BEKLEIDUNG",
	"bannerParagraph": "Die ergonomischen Schnitte und neuen Designs sind die Grundlage für ein perfektes Lagensystem, das Bewegungsfreiheit ohne Einschränkung zulässt. ",
	"bannerShopLinks": [
		{
			"text": "Sentinel Jacket",
			"url": "http://www.arcteryx.com/Product.aspx?gender=womens&collection=Whiteline&model=Sentinel-Jacket-W&intcmp=Whiteline_C_Shop_16215"
		}, {
			"text": "Sentinel Pant",
			"url": "http://www.arcteryx.com/Product.aspx?gender=womens&collection=Whiteline&model=Sentinel-Pant-W&intcmp=Whiteline_C_Shop_17403"
		}, {
			"text": "Lithic Mitten",
			"url": "http://www.arcteryx.com/Product.aspx?gender=womens&collection=Whiteline&model=Lithic-Mitten-W&intcmp=Whiteline_C_Shop_16169"
		}
	]
}