{
	"lang": "fr",
	"bannerClassName": "gender-mens",
	"bannerHeading": "COLLECTION HOMME",
	"bannerParagraph": "Le design des produits Arc'teryx est adapté à chaque situation, pour laquelle il offre le maximum d'avantages. Des choix des tissus réfléchis, des poches multiples et des coupes  fonctionnelles.",
	"bannerCTA": {
		"text": "DECOUVREZ LE LOOKBOOK HIVER",
		"url": "http://www.arcteryx.com/LearnMore.aspx?article=WinterLookbook&intcmp=Mens_C_Learn_Lookbook"
	},
	"bannerShopLinks": [
		{
			"text": "Veste Sabre",
			"url": "http://www.arcteryx.com/Product.aspx?gender=mens&collection=Whiteline&model=Sabre-Jacket&intcmp=Mens_C_Shop_16214"
		}, {
			"text": "Veste à capuche Cerium LT",
			"url": "http://www.arcteryx.com/Product.aspx?gender=Mens&category=Mid_Layer_and_Fleece&model=Cerium-LT-Hoody&intcmp=Mens_C_Shop_19286"
		}, {
			"text": "Sac à dos Quintic 20",
			"url": "http://www.arcteryx.com/Product.aspx?category=Packs&model=Quintic-20-Backpack&intcmp=Mens_C_Shop_16193"
		}
	]
}