{
	"lang": "fr",
	"bannerClassName": "voltair-2",
	"bannerHeading": "AIRBAG D'AVALANCHE VOLTAIR",
	"bannerParagraph": "Le nouveau sac avalanche Voltair est alimenté par une puissante batterie Lithium-Polymère (vendue séparément), qui permet de déployer l’airbag plusieurs fois au cours d'une même sortie.",
	"bannerParagraphLink": {
		"text": "EN SAVOIR PLUS",
		"url": "http://www.arcteryx.com/LearnMore.aspx?article=Voltair&intcmp=Voltair_C_Learn_Voltair"
	},
	"bannerCTA": {
		"text": "EN SAVOIR PLUS",
		"url": "http://www.arcteryx.com/LearnMore.aspx?article=Voltair&intcmp=Voltair_C_Learn_Voltair"
	},
	"voltairSteps": {
		"voltairStep1": {
			"stepText": "PREMIÈRE ÉTAPE",
			"text": "Choisissez le volume de votre sac à dos 20 L ou 30 L"
		},
		"voltairStep2": {
			"stepText": "DEUXIÈME ÉTAPE",
			"text": "Achetez une batterie Lithium-Polymère"
		},
		"voltairStep3": {
			"stepText": "TROISIÈME ÉTAPE",
			"text": "Achetez un chargeur de batterie"
		}
	}
}