{
	"lang": "fr",
	"bannerClassName": "voltair",
	"bannerHeading": "VOLTAIR AIRBAG",
	"bannerSubheading": "LA NOUVELLE RÉFÉRENCE <br/>EN SÉCURITÉ AVALANCHE",
	"bannerParagraph": "Un airbag intégré à votre sac pour vous entraîner tous les jours à la sécurité en ski hors-piste. Tous nos sacs avalanche associent confort, portage efficace et rangements optimisés.",
	"bannerCTA": {
		"text": "EN SAVOIR PLUS",
		"url": "http://www.arcteryx.com/LearnMore.aspx?article=Voltair&intcmp=Voltair_C_Learn_Voltair"
	},
	"bannerVideo": {
		"text": "Voltair",
		"time": "4:55",
		"url": "https://youtu.be/n5rBiSbq5jo"
	},
	"bannerCallout": {
		"text": "<span>NOUVEAU</span> SAC À DOS VOLTAIR 30",
		"url": "http://www.arcteryx.com/Product.aspx?category=Packs&model=Voltair-30-Backpack-NorAm&intcmp=Voltair_C_Shop_9562"
	}
}