{
	"lang": "fr",
	"bannerClassName": "whiteline-womens",
	"bannerHeading": "Whiteline",
	"bannerSubheading": "VÊTEMENTS SKI & SNOWBOARD",
	"bannerParagraph": "Des nouveaux designs pour le ski et le snowboard. Sélection des matières et design étudié pour une optimisation thermique des superpositions et une grande iberté de mouvement.",
	"bannerShopLinks": [
		{
			"text": "Veste Sentinel",
			"url": "http://www.arcteryx.com/Product.aspx?gender=womens&collection=Whiteline&model=Sentinel-Jacket-W&intcmp=Whiteline_C_Shop_16215"
		}, {
			"text": "Pantalon Sentinel",
			"url": "http://www.arcteryx.com/Product.aspx?gender=womens&collection=Whiteline&model=Sentinel-Pant-W&intcmp=Whiteline_C_Shop_17403"
		}, {
			"text": "Gant Lithic",
			"url": "http://www.arcteryx.com/Product.aspx?gender=womens&collection=Whiteline&model=Lithic-Mitten-W&intcmp=Whiteline_C_Shop_16169"
		}
	]
}