{
	"landingPageTemplate": "atom-lp.html",
	"lang": "en",
	"pageClassName": "atom",
	"pageTitle": "ATOM SERIES",
	
	"s1Heading": "ATOM SERIES",
	"s1Subheading": "VERSATILE TECHNICAL INSULATION",
	
	"s2Text": "Atom series designs have a variety of thermal values to cover the spectrum of elevations, trip lengths and weather conditions that can be encountered on mountain trips. Weather resistant outer fabrics shed precipitation and block wind; proprietary Coreloft™ insulation retains warmth and resists moisture build-up.  ",
	
	"s3Heading": "CORELOFT",
	"s3Text": "Silicon treated synthetic insulation that has excellent loft retention, thermal efficiency and remains warm when damp. Lightweight and breathable.",

	"s4Heading": "DETAILS",
	"s4Text1": "No Slip Zip™ prevents zipper from self-opening at collar.",
	"s4Text2": "Compact design has vertical drawcords.",
	"s4Text3": "Air permeable face fabric regulates temperature.",
	
	"s5Heading": "ATOM SERIES",
	"s5Text": "Atom insulations are arranged by thermal value and usage. Conditions expected and personal preferences are additional elements to consider when making your selection.",
	"s5Product1": {
		"text": "ATOM SL",
		"description": "Most compact, lightest weight and easy to layer, the SL is an option for cooler summer mornings or high output activities.",
		"cta": {
			"text": "SHOP ATOM SL",
			"url": "http://www.arcteryx.com/ProductFind.aspx?modelno=17305,17309&intro=AtomFamily&intcmp=Atom_L_ShopFind_AtomSL"
		},
		"img": "../../assets/images/atom/atom_sl.png"
	},
	"s5Product2": {
		"text": "ATOM LT",
		"description": "Most versatile in terms of insulation and weight and application, the LT is often used as an outer layer with weather resistant properties.",
		"cta": {
			"text": "SHOP ATOM LT",
			"url": "http://www.arcteryx.com/ProductFind.aspx?modelno=14644,14660,14645,14661,14646,14662,14647&intro=AtomFamily&intcmp=Atom_L_ShopFind_AtomLT"
		},
		"img": "../../assets/images/atom/atom_lt.png"
	},
	"s5Product3": {
		"text": "ATOM AR",
		"description": "Colder weather outer layer or cold weather midlayer. The AR has high thermal value during slower paced activities or during rest breaks.",
		"cta": {
			"text": "SHOP ATOM AR",
			"url": "http://www.arcteryx.com/ProductFind.aspx?modelno=14648,14664,14649&intro=AtomFamily&intcmp=Atom_L_ShopFind_AtomAR"
		},
		"img": "../../assets/images/atom/atom_ar.png"
	}
}