{
	"landingPageTemplate": "new-for-fall-lp.html",
	"lang": "en",
	"pageClassName": "new-for-fall",
	"pageTitle": "Fall/Winter 2016",
	
	"s1Heading": "ADVANCE YOUR MOUNTAIN EXPERIENCE",
	"s1Subheading": "NEW FOR FALL/WINTER 2016",
	
	"s2Text": "Technical innovations in fabric technologies and design breakthroughs are the result of persistent investigations into how things can be improved. This season, from base layer to footwear, new products to advance your mountain experience",
	"s2CTA1": {
		"text": "SHOP NEW FOR MEN",
		"url": "http://www.arcteryx.com/ProductFind.aspx?gender=mens&collection=Whats_New&intcmp=NewForFall_L_ShopFind_WhatsNew"
	},
	"s2CTA2": {
		"text": "SHOP NEW FOR WOMEN",
		"url": "http://www.arcteryx.com/ProductFind.aspx?gender=womens&collection=Whats_New&intcmp=NewForFall_L_ShopFind_WhatsNew"
	},
	
	"s3Heading": "OBSESSIVE DESIGN",
	"s3Text": "Where do ideas come from? From places of curiosity, experience and profound knowledge. Dedicated to making the very best possible.",
	"s3Video": "https://youtu.be/HHblpJz5zsE",

	"s4Heading": "EVOLUTION OF A STORM FORTRESS",
	"s4Text": "A pinnacle design made better: lighter, stronger. Obsessive attention to detail propels this revolutionary mountain icon – the Alpha SV Jacket.",
	"s4CTA": {
		"text": "LEARN MORE",
		"url": "http://www.arcteryx.com/LearnMore.aspx?article=AlphaSV&intcmp=NewForFall_L_Learn_AlphaSV"
	},
	
	"s6Heading": "WINTER ALPINISM",
	"s6Text": "Climbing specific designs with room for maximum layers and freedom of motion. Retaining warmth while stationary and avoiding excess sweat are the keys to energy efficient winter travel at high elevations. Ascent designs focus on minimalized systems, secure storage and overall light weight.",
	"s6Product1": {
		"text": "ALPHA SV JACKET <br/>MEN’S",
		"url": "http://www.arcteryx.com/Product.aspx?gender=Mens&category=Shell_Jackets&model=Alpha-SV-Jacket&intcmp=NewForFall_L_Shop_18082",
		"img": "../../assets/images/new_for_fall/products/Alpha-SV-Jacket-Cardinal.png"
	},
	"s6Product2": {
		"text": "FIREBEE AR PARKA <br/>MEN’S",
		"url": "http://www.arcteryx.com/Product.aspx?gender=Mens&category=Insulated_Jackets&model=Firebee-AR-Parka-W&intcmp=NewForFall_L_Shop_18038",
		"img": "../../assets/images/new_for_fall/products/Firebee-AR-Parka-Macaw.png"
	},
	"s6Product3": {
		"text": "PROTON LT HOODY <br/>MEN’S",
		"url": "http://www.arcteryx.com/Product.aspx?gender=Mens&category=Insulated_Jackets&model=Proton-LT-Hoody&intcmp=NewForFall_L_Shop_18354",
		"img": "../../assets/images/new_for_fall/products/Proton-LT-Hoody-Blaze.png"
	},
	"s6Product4": {
		"text": "PHASE AR ZIP NECK LS <br/>MEN’S",
		"url": "http://www.arcteryx.com/Product.aspx?gender=Mens&category=Base_Layer&model=Phase-AR-Zip-Neck-LS&intcmp=NewForFall_L_Shop_16261",
		"img": "../../assets/images/new_for_fall/products/Phase-AR-Zip-Neck-LS-Rohdei.png"
	},
	"s6Product5": {
		"text": "ALPHA SV JACKET <br/>WOMEN’S",
		"url": "http://www.arcteryx.com/Product.aspx?gender=Womens&category=Shell_Jackets&model=Alpha-SV-Jacket-W&intcmp=NewForFall_L_Shop_18082",
		"img": "../../assets/images/new_for_fall/products/Alpha-SV-Jacket-W-Somerset-Blue.png"
	},
	"s6Product6": {
		"text": "ALPHA AR GLOVE",
		"url": "http://www.arcteryx.com/Product.aspx?category=Accessories&subcat=Gloves&model=Alpha-AR-Glove&intcmp=NewForFall_L_Shop_16176",
		"img": "../../assets/images/new_for_fall/products/Alpha-AR-Glove-Graphite.png"
	},
	"s6Product7": {
		"text": "ALPHA SL GLOVE",
		"url": "http://www.arcteryx.com/Product.aspx?category=Accessories&subcat=Gloves&model=Alpha-SL-Glove&intcmp=NewForFall_L_Shop_16177",
		"img": "../../assets/images/new_for_fall/products/Alpha-SL-Glove-Carbon-Cardinal.png"
	},
	"s6Product8": {
		"text": "PROTON AR HOODY <br/>WOMEN’S",
		"url": "http://www.arcteryx.com/Product.aspx?gender=Womens&category=Insulated_Jackets&model=Proton-AR-Hoody-W&intcmp=NewForFall_L_Shop_18348",
		"img": "../../assets/images/new_for_fall/products/Proton-AR-Hoody-W-Fiesta.png"
	},
	"s6Product9": {
		"text": "FORTREZ HOODY <br/>WOMEN’S",
		"url": "http://www.arcteryx.com/Product.aspx?gender=Womens&category=Mid_Layer_and_Fleece&model=Fortrez-Hoody-W&intcmp=NewForFall_L_Shop_18089",
		"img": "../../assets/images/new_for_fall/products/Fortrez-Hoody-W-Lt-Chandra.png"
	},
	"s6Product10": {
		"text": "SATORO ZIP NECK <br/>WOMEN’S",
		"url": "http://www.arcteryx.com/Product.aspx?gender=Womens&category=Base_Layer&model=Satoro-AR-Zip-Neck-LS-W&intcmp=NewForFall_L_Shop_16274",
		"img": "../../assets/images/new_for_fall/products/Satoro-AR-Zip-Neck-LS-W-Oceanus.png"
	},
	"s6CTA": {
		"text": "SHOP ASCENT COLLECTION",
		"url": "http://www.arcteryx.com/ProductFind.aspx?collection=Ascent&intcmp=NewForFall_L_ShopFind_AscentCollection"
	},
	
	"s7Heading": "BENCHMARK AVALANCHE <br/>SAFETY TECHNOLOGY",
	"s7Text": "Avalanche airbag systems that are part of your daily safety training and backcountry toolkit. With all the comfort, efficient carry and economy of space that characterizes all of our pack designs.",
	"s7CTA1": {
		"text": "SHOP VOLTAIR",
		"url": "http://www.arcteryx.com/ProductFind.aspx?language=EN&category=Packs&subcat=Avalanche_Airbag&intcmp=NewForFall_L_Shop_9562"
	},
	"s7CTA2": {
		"text": "LEARN MORE",
		"url": "http://www.arcteryx.com/LearnMore.aspx?article=Voltair&intcmp=NewForFall_L_Learn_Voltair"
	},

	"s9Heading": "CONTOURED FOR SKIING ",
	"s9Text": "New Ski and Snowboard designs. Sleek weather protection crafted for powerful elegance in motion. Detailed for efficiency and low profile warmth.",
	"s9Product1": {
		"text": "SPHENE JACKET <br/>MEN’S",
		"url": "http://www.arcteryx.com/Product.aspx?gender=mens&collection=Whiteline&model=Sphene-Jacket&intcmp=NewForFall_L_Shop_14556",
		"img": "../../assets/images/new_for_fall/products/Sphene-Jacket-Rohdei.png"
	},
	"s9Product2": {
		"text": "Khamski 38 Backpack",
		"url": "http://www.arcteryx.com/Product.aspx?category=Packs&model=Khamski-38-Backpack&intcmp=NewForFall_L_Shop_9562",
		"img": "../../assets/images/new_for_fall/products/F16-Khamski-38-Backpack-Mercury.png"
	},
	"s9Product3": {
		"text": "CERIUM LT HOODY <br/>MEN’S",
		"url": "http://www.arcteryx.com/Product.aspx?gender=Mens&category=Mid_Layer_and_Fleece&model=Cerium-LT-Hoody&intcmp=NewForFall_L_Shop_19286",
		"img": "../../assets/images/new_for_fall/products/Cerium-LT-Hoody-Madras.png"
	},
	"s9Product4": {
		"text": "CASSIAR JACKET <br/>MEN’S",
		"url": "http://www.arcteryx.com/Product.aspx?gender=mens&collection=Whiteline&model=Cassiar-Jacket&intcmp=NewForFall_L_Shop_17971",
		"img": "../../assets/images/new_for_fall/products/Cassiar-Jacket-Magnet.png"
	},
	"s9Product5": {
		"text": "CASSIAR PANT <br/>MEN’S",
		"url": "http://www.arcteryx.com/Product.aspx?gender=mens&collection=Whiteline&model=Cassiar-Pant&intcmp=NewForFall_L_Shop_17972",
		"img": "../../assets/images/new_for_fall/products/Cassiar-Pant-Adriatic-Blue.png"
	},
	"s9Product6": {
		"text": "ISER JACKET <br/>MEN’S",
		"url": "http://www.arcteryx.com/Product.aspx?gender=mens&collection=Whiteline&model=Iser-Jacket&intcmp=NewForFall_L_Shop_17960",
		"img": "../../assets/images/new_for_fall/products/Iser-Jacket-Magma.png"
	},
	"s9Product7": {
		"text": "RAVENNA JACKET <br/>MEN’S",
		"url": "http://www.arcteryx.com/Product.aspx?gender=womens&collection=Whiteline&model=Ravenna-Jacket-W&intcmp=NewForFall_L_Shop_17968",
		"img": "../../assets/images/new_for_fall/products/Ravenna-Jacket-W-Violet-Wine.png"
	},
	"s9Product8": {
		"text": "RAVENNA PANT <br/>WOMEN’S",
		"url": "http://www.arcteryx.com/Product.aspx?gender=womens&collection=Whiteline&model=Ravenna-Pant-W&intcmp=NewForFall_L_Shop_17970",
		"img": "../../assets/images/new_for_fall/products/Ravenna-Pant-W-Fiesta.png"
	},
	"s9Product9": {
		"text": "ATOM LT HOODY <br/>WOMEN’S",
		"url": "http://www.arcteryx.com/Product.aspx?gender=Womens&category=Mid_Layer_and_Fleece&model=Atom-LT-Hoody-W&intcmp=NewForFall_L_Shop_14660",
		"img": "../../assets/images/new_for_fall/products/Atom-LT-Hoody-W-Brushed-Nickel.png"
	},
	"s9Product10": {
		"text": "ASTRYL JACKET <br/>WOMEN’S",
		"url": "http://www.arcteryx.com/Product.aspx?gender=womens&collection=Whiteline&model=Astryl-Jacket-W&intcmp=NewForFall_L_Shop_17961",
		"img": "../../assets/images/new_for_fall/products/Astryl-Jacket-W-Chamisa.png"
	},
	"s9Product11": {
		"text": "KAKEELA PANT <br/>WOMEN’S",
		"url": "http://www.arcteryx.com/Product.aspx?gender=womens&collection=Whiteline&model=Kakeela-Pant-W&intcmp=NewForFall_L_Shop_19307",
		"img": "../../assets/images/new_for_fall/products/Kakeela-Pant-W-Cerulean.png"
	},
	"s9Product12": {
		"text": "SHASHKA JACKET <br/>WOMEN’S",
		"url": "http://www.arcteryx.com/Product.aspx?gender=womens&collection=Whiteline&model=Shashka-Jacket-W&intcmp=NewForFall_L_Shop_17994",
		"img": "../../assets/images/new_for_fall/products/Shashka-Jacket-W-Somerset-Blue.png"
	},
	"s9CTA": {
		"text": "SHOP WHITELINE COLLECTION",
		"url": "http://www.arcteryx.com/ProductFind.aspx?Collection=Whiteline&intcmp=NewForFall_L_ShopFind_WhitelineCollection"
	},

	"s10Heading": "CLIMB. SKI",
	"s10Text": "Designed for ski alpinists, a boot with both rotational climbing agility and elite ski performance. Introducing new technologies and innovations into our technical mountain footwear – the Procline series. No compromises.",
	"s10CTA1": {
		"text": "SHOP BOOTS",
		"url": "http://www.arcteryx.com/ProductFind.aspx?category=Footwear&subcat=Boots&intcmp=NewForFall_L_ShopFind_Procline"
	},
	"s10CTA2": {
		"text": "LEARN MORE",
		"url": "http://www.arcteryx.com/LearnMore.aspx?article=Procline&intcmp=NewForFall_L_Learn_Procline"
	},

	"s12Heading": "24 COLLECTION: <br/>REFINED AND FUNCTIONAL",
	"s12Text": "Casual designs with technical details. For urban and mountain environments.",
	"s12Product1": {
		"text": "Yerba Coat <br/>WOMEN’S",
		"url": "http://www.arcteryx.com/Product.aspx?gender=womens&collection=24&model=Yerba-Coat-W&intcmp=NewForFall_L_Shop_18047",
		"img": "../../assets/images/new_for_fall/products/Yerba-Coat-W-Nightshadow.png"
	},
	"s12Product2": {
		"text": "NALO JACKET <br/>WOMEN’S",
		"url": "http://www.arcteryx.com/Product.aspx?gender=womens&collection=24&model=Nalo-Jacket-W&intcmp=NewForFall_L_Shop_18359",
		"img": "../../assets/images/new_for_fall/products/Nalo-Jacket-W-Caper.png"
	},
	"s12Product3": {
		"text": "GAMBIER PARKA <br/>WOMEN’S",
		"url": "http://www.arcteryx.com/Product.aspx?gender=womens&collection=24&model=Gambier-Parka-W&intcmp=NewForFall_L_Shop_16291",
		"img": "../../assets/images/new_for_fall/products/Gambier-Parka-W-Quartz.png"
	},
	"s12Product4": {
		"text": "CABLE POM POM HAT <br/>WOMEN’S",
		"url": "http://www.arcteryx.com/Product.aspx?category=Accessories&subcat=Toques_and_Beanies&model=Cable-Pom-Pom-Hat&intcmp=NewForFall_L_Shop_18880",
		"img": "../../assets/images/new_for_fall/products/Cable-Pom-Pom-Hat-Ametrine-Aramon.png"
	},
	"s12Product5": {
		"text": "DURANT COAT <br/>WOMEN’S",
		"url": "http://www.arcteryx.com/Product.aspx?gender=womens&collection=24&model=Durant-Coat-W&intcmp=NewForFall_L_Shop_18156",
		"img": "../../assets/images/new_for_fall/products/Durant-Coat-W-Niagara.png"
	},
	"s12Product6": {
		"text": "REIA PANT <br/>WOMEN’S",
		"url": "http://www.arcteryx.com/Product.aspx?gender=womens&collection=24&model=Reia-Pants-W&intcmp=NewForFall_L_Shop_19298",
		"img": "../../assets/images/new_for_fall/products/Reia-Pant-W-Black-Sapphire.png"
	},
	"s12Product7": {
		"text": "AMES JACKET <br/>MEN’S",
		"url": "http://www.arcteryx.com/Product.aspx?gender=mens&collection=24&model=Ames-Jacket&intcmp=NewForFall_L_Shop_18161",
		"img": "../../assets/images/new_for_fall/products/Ames-Jacket-Dark-Moss.png"
	},
	"s12Product8": {
		"text": "ELGIN HOODY <br/>MEN’S",
		"url": "http://www.arcteryx.com/Product.aspx?gender=mens&collection=24&model=Elgin-Hoody&intcmp=NewForFall_L_Shop_18159",
		"img": "../../assets/images/new_for_fall/products/Elgin-Hoody-Heathered-Mica.png"
	},
	"s12Product9": {
		"text": "BERNAL SHIRT <br/>MEN’S",
		"url": "http://www.arcteryx.com/Product.aspx?gender=mens&collection=24&model=Bernal-Shirt&intcmp=NewForFall_L_Shop_18162",
		"img": "../../assets/images/new_for_fall/products/Bernal-Shirt-LS-Carbon-Steel.png"
	},
	"s12Product10": {
		"text": "DELPHIC BEANIE",
		"url": "http://www.arcteryx.com/Product.aspx?category=Accessories&subcat=Toques_and_Beanies&model=Delphic-Beanie&intcmp=NewForFall_L_Shop_16429",
		"img": "../../assets/images/new_for_fall/products/Delphic-Beanie-Urban.png"
	},
	"s12Product11": {
		"text": "Fyx 13 Messenger Bag",
		"url": "http://www.arcteryx.com/Product.aspx?collection=24&model=Fyx-13-Bag&intcmp=NewForFall_L_Shop_18104",
		"img": "../../assets/images/new_for_fall/products/Fyx-13-Messenger-Bag-Black.png"
	},
	"s12Product12": {
		"text": "A2B VINTON JACKET <br/>MEN’S",
		"url": "http://www.arcteryx.com/Product.aspx?gender=mens&collection=24&model=A2B-Vinton-Jacket&intcmp=NewForFall_L_Shop_18160",
		"img": "../../assets/images/new_for_fall/products/A2B-Vinton-Jacket-Redwood.png"
	},
	"s12CTA": {
		"text": "SHOP 24 COLLECTION",
		"url": "http://www.arcteryx.com/ProductFind.aspx?Collection=24&intcmp=NewForFall_L_ShopFind_24Collection"
	}
}