{
	"lang": "jp",
	"bannerClassName": "ascent-mens",
	"bannerHeading": "こだわりのデザイン",
	"bannerSubheading": "ストームフォートレス改革",
	"bannerParagraph": "クライマーを最悪の登山条件から守る、20年のイノベーションとデザインの発展を反映したデザインにより、Alpha SVジャケットは、最新のストームフォートレス性能となりました。史上最高の軽さと耐久性を備えた新モデル",
	"bannerCTA": {
		"text": "詳細を見る",
		"url": "http://www.arcteryx.com/LearnMore.aspx?article=AlphaSV&intcmp=Ascent_C_Learn_AlphaSV"
	},
	"bannerShopLinks": [
		{
			"text": "ALPHA SV ジャケット",
			"url": "http://www.arcteryx.com/Product.aspx?gender=MensProduct.aspx?category=Shell_Jackets&model=Alpha-SV-Jacket&intcmp=Ascent_C_Shop_18082"
		}, {
			"text": "ALPHA SL グローブ",
			"url": "http://www.arcteryx.com/Product.aspx?category=Accessories&subcat=Gloves&model=Alpha-SL-Glove&intcmp=Ascent_C_Shop_16177"
		}, {
			"text": "FIREBREE AR パーカ",
			"url": "http://www.arcteryx.com/Product.aspx?gender=Mens&category=Insulated_Jackets&model=Firebee-AR-Parka-W&intcmp=Ascent_C_Shop_18038"
		}
	],
	"bannerCallout": {
		"text": "デザインが改良された ALPHA SV ジャケット",
		"url": "http://www.arcteryx.com/Product.aspx?gender=MensProduct.aspx?category=Shell_Jackets&model=Alpha-SV-Jacket&intcmp=Ascent_C_Shop_18082"
	},
	"goretex": true
}