{
	"lang": "jp",
	"bannerClassName": "atoms",
	"bannerHeading": "ATOM シリーズ",
	"bannerSubheading": "様々な技術が詰まったインシュレーション",
	"bannerParagraph": "どんな山のコンディションもカバーする、さまざまなレベルの保温性を備えた設計で、雨を遮り、風をブロックする、耐候性に優れたアウターファブリックを使用。Coreloft™ による断熱性が、温かさをキープしつつ、内部に湿気がこもるのを制御します。",
	"bannerCTA": {
		"text": "詳細を見る",
		"url": "http://www.arcteryx.com/LearnMore.aspx?article=AtomFamily&intcmp=Atom_C_LearnMore_AtomFamily"
	}
}