{
	"lang": "jp",
	"bannerClassName": "climberhands",
	"bannerHeading": "#Climberhands",
	"bannerSubheading": "経験を重ねたクライマーの証",
	"bannerParagraph": "タコや切り傷だらけの手、テーピングをした指。ひとつの課題を完登するのに、何時間もかけたり、壁に一日取り付いたり、あるいは、仕事終わりに毎日登って、作ってきたこれらの傷。シーズン後のあなたの手を見せてください。",
	"bannerCTA": {
		"text": "探検",
		"url": "http://blog.arcteryx.com/climberhands&intcmp=ClimberHands_C_Learn_Explore"
	}
}