{
	"lang": "jp",
	"bannerClassName": "proton",
	"bannerHeading": "Proton シリーズ",
	"bannerSubheading": "空気を通す断熱構造",
	"bannerParagraph": "熱くなり過ぎず、温かさをキープ。有酸素運動で熱を発散する間に、余分な熱や湿気を逃がし、空気の流れをつくる、一日中快適な断熱構造です。",
	"bannerCallout": {
		"text": "新しいPROTON AR フーディー",
		"url": "http://www.arcteryx.com/Product.aspx?gender=Womens&category=Insulated_Jackets&model=Proton-AR-Hoody-W&intcmp=Proton_C_Shop_18348"
	}
}