{
	"lang": "jp",
	"bannerClassName": "voltair",
	"bannerHeading": "VOLTAIR エアバッグ",
	"bannerSubheading": "ベンチマーク・アバランチ安全技術",
	"bannerParagraph": "日々のトレーニングの安全への備えと、バックカントリー・ツールキットの一部となる、アバランチ・エアバッグシステム。携帯しやすく、スペースを取らない、使い勝手の良さが、当ブランドのバックパックデザインの特徴です。",
	"bannerCTA": {
		"text": "詳細を見る",
		"url": "http://www.arcteryx.com/LearnMore.aspx?article=Voltair&intcmp=Voltair_C_Learn_Voltair"
	},
	"bannerVideo": {
		"text": "Voltair",
		"time": "4:55",
		"url": "https://youtu.be/n5rBiSbq5jo"
	},
	"bannerCallout": {
		"text": "新しい VOLTAIR 30 バックパック",
		"url": "http://www.arcteryx.com/Product.aspx?category=Packs&model=Voltair-30-Backpack-NorAm&intcmp=Voltair_C_Shop_9562"
	}
}