{
	"lang": "no",
	"bannerClassName": "twentyfour-mens",
	"bannerHeading": "LIVSSTIL FOR HERRER",
	"bannerSubheading": "RAFFINERT OG FUNKSJONELL",
	"bannerParagraph": "Hverdagsplagg med tekniske detaljer. For by og fjell.",
	"bannerShopLinks": [
		{
			"text": "Ames Jacket",
			"url": "http://www.arcteryx.com/Product.aspx?gender=mens&collection=24&model=Ames-Jacket&intcmp=24_C_Shop_18161"
		}, {
			"text": "Granville Pack",
			"url": "http://www.arcteryx.com/Product.aspx?category=Packs&subcat=Daypacks&model=Granville-Backpack&intcmp=24_C_Shop_14601"
		}, {
			"text": "Delphic Beanie",
			"url": "http://www.arcteryx.com/Product.aspx?category=Accessories&subcat=Toques_and_Beanies&model=Delphic-Beanie&intcmp=24_C_Shop_16429"
		}
	],
	"bannerCallout": {
		"text": "<span>Nye</span> Ames Jacket",
		"url": "http://www.arcteryx.com/Product.aspx?gender=mens&collection=24&model=Ames-Jacket&intcmp=24_C_Shop_18161"
	}
}