{
	"lang": "no",
	"bannerClassName": "gender-womens",
	"bannerHeading": "DAMEKOLLEKSJON",
	"bannerParagraph": "Arc’teryx-produkter tilpasser seg forholdene og bruksområdene med designegenskaper med maksimal nytteverdi. Gjennomtenkt materialvalg, oppbevaring og passform.",
	"bannerCTA": {
		"text": "SHOP VINTERENS LOOKBOOK",
		"url": "http://www.arcteryx.com/LearnMore.aspx?article=WinterLookbook&intcmp=Womens_C_Learn_Lookbook"
	},
	"bannerShopLinks": [
		{
			"text": "Ravenna Jacket",
			"url": "http://www.arcteryx.com/Product.aspx?gender=womens&model=Ravenna-Jacket-W&intcmp=Womens_C_Shop_17968"
		}, {
			"text": "Ravenna Pant",
			"url": "http://www.arcteryx.com/Product.aspx?gender=womens&model=Ravenna-Pant-W&intcmp=Womens_C_Shop_17970"
		}, {
			"text": "Anertia Mitten",
			"url": "http://www.arcteryx.com/Product.aspx?gender=womens&model=Anertia-Mitten-W&intcmp=Womens_C_Shop_13982"
		}
	]
}