{
	"lang": "no",
	"bannerClassName": "satoro",
	"bannerHeading": "AVANSERT ULL",
	"bannerSubheading": "SATORO-INNERLAG",
	"bannerParagraph": "De merinoullbaserte innerlagene i Satoro-serien tar seg av fuktighet og regulerer temperaturen i et bredt spekter av forhold og intensitetsnivåer.",
	"bannerCallout": {
		"text": "<span>NYE</span> Satoro AR Zip Neck",
		"url": "http://www.arcteryx.com/Product.aspx?gender=Womens&category=Base_Layer&model=Satoro-AR-Zip-Neck-LS-W&intcmp=Satoro_C_Shop_16274"
	}
}