{
	"lang": "no",
	"bannerClassName": "voltair-2",
	"bannerHeading": "BALLONGSYSTEMENE VOLTAIR",
	"bannerParagraph": "Det NYE skredballongsystemet Voltair Avalanche Airbag drives av et kraftig litiumbatteri (selges separat) som gjør at ballongen kan blåses opp flere ganger på samme tur.",
	"bannerParagraphLink": {
		"text": "LÆR MER",
		"url": "http://www.arcteryx.com/LearnMore.aspx?article=Voltair&intcmp=Voltair_C_Learn_Voltair"
	},
	"bannerCTA": {
		"text": "LÆR MER",
		"url": "http://www.arcteryx.com/LearnMore.aspx?article=Voltair&intcmp=Voltair_C_Learn_Voltair"
	},
	"voltairSteps": {
		"voltairStep1": {
			"stepText": "TRINN <span>1</span>",
			"text": "Velg ryggsekkvolum 20 l eller 30 l"
		},
		"voltairStep2": {
			"stepText": "TRINN <span>2</span>",
			"text": "Kjøp et litiumbatteri"
		},
		"voltairStep3": {
			"stepText": "TRINN <span>3</span>",
			"text": "Kjøp en batterilader"
		}
	}
}