{
	"lang": "no",
	"bannerClassName": "voltair",
	"bannerHeading": "VOLTAIR SKREDBALLONGER",
	"bannerSubheading": "EN NY MÅLESTOKK FOR SKREDUTSTYR",
	"bannerParagraph": "Skredballongsystemer som inngår i ditt vanlige turutstyr og legger til rette for øvelse. Med den samme komforten, effektive bæringen og økonomiske romfordelingen som alle sekkdesignene våre er kjent for.",
	"bannerCTA": {
		"text": "LÆR MER",
		"url": "http://www.arcteryx.com/LearnMore.aspx?article=Voltair&intcmp=Voltair_C_Learn_Voltair"
	},
	"bannerVideo": {
		"text": "Voltair",
		"time": "4:55",
		"url": "https://youtu.be/n5rBiSbq5jo"
	},
	"bannerCallout": {
		"text": "<span>NYE</span> Voltair 30 Backpack",
		"url": "http://www.arcteryx.com/Product.aspx?category=Packs&model=Voltair-30-Backpack-NorAm&intcmp=Voltair_C_Shop_9562"
	}
}