{
	"lang": "no",
	"bannerClassName": "whiteline-womens",
	"bannerHeading": "Whiteline",
	"bannerSubheading": "KLÆR TIL SKI OG SNOWBOARD",
	"bannerParagraph": "Nye snøsportsmodeller som gir lag-på-lag-systemer med maksimal energieffektivitet og bevegelsesfrihet gjennom nøye utvalgte materialer og gjennomtenkt design.",
	"bannerShopLinks": [
		{
			"text": "Sentinel Jacket",
			"url": "http://www.arcteryx.com/Product.aspx?gender=womens&collection=Whiteline&model=Sentinel-Jacket-W&intcmp=Whiteline_C_Shop_16215"
		}, {
			"text": "Sentinel Pant",
			"url": "http://www.arcteryx.com/Product.aspx?gender=womens&collection=Whiteline&model=Sentinel-Pant-W&intcmp=Whiteline_C_Shop_17403"
		}, {
			"text": "Lithic Mitten",
			"url": "http://www.arcteryx.com/Product.aspx?gender=womens&collection=Whiteline&model=Lithic-Mitten-W&intcmp=Whiteline_C_Shop_16169"
		}
	]
}